{
  "prefix": "/",
  "name": "CaseFox 📦🦊🤖",
  "case_reviewer_role": "Mod",
  "key":"FOO",
  "case_command_channel": "general",
  "case_category": "CASES",
  "summary_category": "CASES",
  "summary_channel": "case-summaries"
}
